{
 "$schema": "http://json-schema.org/draft-03/schema",
 "type": "object",
 "properties": {
   "id": {
     "type": "integer",
     "required": true,
     "description": "员工ID"
   },
   "number": {
     "type": "string",
     "required": true,
     "description": "员工编号"
   },
   "name": {
     "type": "string",
     "required": true,
     "description": "员工姓名"
   },
   "phone_no": {
     "type": "string",
     "required": true,
     "description": "联系电话"
   },
   "organ_id": {
     "type": "integer",
     "required": true,
     "description": "机构ID"
   },
   "organ_name": {
     "type": "string",
     "required": true,
     "description": "机构名称"
   }
 }
}
